<svg width="56" height="50" viewBox="0 0 56 50" fill="none" xmlns="http://www.w3.org/2000/svg">
<rect width="56" height="50" fill="black"/>
<path d="M43.0964 18.9926L42.8825 19.4445C42.6134 19.3172 42.3104 19.2495 42.0007 19.2499H42H35H34.5V18.7499V14.5833V14.0833H35H40.1333C40.6367 14.0833 41.1096 13.9042 41.4502 13.6001C41.789 13.2976 41.9667 12.9004 41.9667 12.4999V4.16659C41.9667 3.76612 41.789 3.36887 41.4502 3.06641C41.1096 2.76231 40.6367 2.58325 40.1333 2.58325H32.6667C29.1929 2.58325 25.8712 3.81587 23.4302 5.99535C20.991 8.17316 19.6333 11.114 19.6333 14.1666V18.7499V19.2499H19.1333H14C13.4966 19.2499 13.0237 19.429 12.6831 19.7331C12.3443 20.0355 12.1667 20.4328 12.1667 20.8333V29.1666C12.1667 29.567 12.3443 29.9643 12.6831 30.2668C13.0237 30.5709 13.4966 30.7499 14 30.7499H19.1333H19.6333V31.2499V45.8333C19.6333 46.2337 19.811 46.631 20.1497 46.9334C20.4903 47.2375 20.9633 47.4166 21.4667 47.4166H32.6667C33.17 47.4166 33.643 47.2375 33.9836 46.9334C34.3223 46.631 34.5 46.2337 34.5 45.8333V31.2499V30.7499H35H38.2667H38.2671C38.6462 30.7502 39.0128 30.6487 39.3188 30.4636C39.6244 30.2787 39.8514 30.022 39.98 29.7337L39.9804 29.733L43.7135 21.4001L43.0964 18.9926ZM43.0964 18.9926L42.8825 19.4445C43.1513 19.5717 43.375 19.7532 43.5378 19.9681M43.0964 18.9926L43.5378 19.9681M38.2667 31.2499H35.5H35V31.7499V45.8333C35 46.3858 34.7542 46.9157 34.3166 47.3064C33.879 47.6971 33.2855 47.9166 32.6667 47.9166H21.4667C20.8478 47.9166 20.2543 47.6971 19.8167 47.3064C19.3792 46.9157 19.1333 46.3858 19.1333 45.8333V31.7499V31.2499H18.6333H14C13.3812 31.2499 12.7877 31.0304 12.3501 30.6397C11.9125 30.249 11.6667 29.7191 11.6667 29.1666V20.8333C11.6667 20.2807 11.9125 19.7508 12.3501 19.3601C12.7877 18.9694 13.3812 18.7499 14 18.7499L38.2667 31.2499ZM38.2667 31.2499C38.734 31.2503 39.1907 31.1254 39.5776 30.8914M38.2667 31.2499L39.5776 30.8914M43.5378 19.9681C43.6994 20.1819 43.7966 20.4227 43.8263 20.6693C43.8559 20.9154 43.8181 21.1656 43.7137 21.3997L43.5378 19.9681ZM39.5776 30.8914C39.9645 30.6574 40.2637 30.3251 40.4367 29.9374L39.5776 30.8914ZM36.68 27.5833H37.0039L37.1363 27.2877L39.003 23.121L39.3185 22.4166H38.5467H32.6667C32.1633 22.4166 31.6903 22.2375 31.3497 21.9334C31.011 21.631 30.8333 21.2337 30.8333 20.8333V14.1666V14.154L30.8327 14.1414C30.8119 13.7285 30.8848 13.3148 31.0487 12.9246C31.2088 12.5435 31.4532 12.1906 31.7709 11.8877C32.3348 11.4912 32.9856 11.1984 33.685 11.0293C34.3957 10.8574 35.1393 10.8175 35.8688 10.9124L35.9009 10.9166H35.9333H37.8H38.3V10.4166V6.24992V5.74992H37.8L32.6667 5.74992L32.6655 5.74992C30.2007 5.75569 27.8289 6.63199 26.0708 8.20176C24.3108 9.77317 23.3066 11.9157 23.3 14.1651V14.1666V20.8333C23.3 21.2337 23.1223 21.631 22.7836 21.9334C22.443 22.2375 21.97 22.4166 21.4667 22.4166H16.3333H15.8333V22.9166V27.0833V27.5833H16.3333H21.4667C21.97 27.5833 22.443 27.7623 22.7836 28.0664C23.1223 28.3689 23.3 28.7661 23.3 29.1666V43.7499V44.2499H23.8H30.3333H30.8333V43.7499V29.1666C30.8333 28.7661 31.011 28.3689 31.3497 28.0664C31.6903 27.7623 32.1633 27.5833 32.6667 27.5833H36.68Z" fill="white" stroke="white"/>
</svg>
