<svg width="53" height="50" viewBox="0 0 53 50" fill="none" xmlns="http://www.w3.org/2000/svg">
<rect width="53" height="50" fill="white"/>
<path d="M45.2046 4.16655H7.79541C7.3749 4.16104 6.95735 4.23373 6.56662 4.38048C6.17589 4.52722 5.81963 4.74514 5.51817 5.02178C5.21672 5.29843 4.97599 5.62839 4.80973 5.99282C4.64346 6.35725 4.55492 6.74901 4.54916 7.14572V42.854C4.55492 43.2508 4.64346 43.6425 4.80973 44.0069C4.97599 44.3714 5.21672 44.7013 5.51817 44.978C5.81963 45.2546 6.17589 45.4725 6.56662 45.6193C6.95735 45.766 7.3749 45.8387 7.79541 45.8332H45.2046C45.6251 45.8387 46.0426 45.766 46.4334 45.6193C46.8241 45.4725 47.1804 45.2546 47.4818 44.978C47.7833 44.7013 48.024 44.3714 48.1903 44.0069C48.3565 43.6425 48.4451 43.2508 48.4508 42.854V7.14572C48.4451 6.74901 48.3565 6.35725 48.1903 5.99282C48.024 5.62839 47.7833 5.29843 47.4818 5.02178C47.1804 4.74514 46.8241 4.52722 46.4334 4.38048C46.0426 4.23373 45.6251 4.16104 45.2046 4.16655ZM17.8654 39.0415H11.2404V20.2915H17.8654V39.0415ZM14.5529 17.6665C13.6392 17.6665 12.763 17.3241 12.1169 16.7146C11.4709 16.1052 11.1079 15.2785 11.1079 14.4166C11.1079 13.5546 11.4709 12.7279 12.1169 12.1185C12.763 11.509 13.6392 11.1666 14.5529 11.1666C15.0381 11.1146 15.5294 11.16 15.9947 11.2996C16.46 11.4393 16.8888 11.6701 17.2529 11.9769C17.6171 12.2837 17.9085 12.6596 18.108 13.0801C18.3076 13.5005 18.4107 13.9559 18.4107 14.4166C18.4107 14.8772 18.3076 15.3326 18.108 15.753C17.9085 16.1735 17.6171 16.5494 17.2529 16.8562C16.8888 17.163 16.46 17.3938 15.9947 17.5335C15.5294 17.6731 15.0381 17.7185 14.5529 17.6665ZM41.7596 39.0415H35.1346V28.979C35.1346 26.4582 34.185 24.8124 31.7779 24.8124C31.033 24.8175 30.3076 25.038 29.6995 25.444C29.0914 25.85 28.6299 26.4221 28.3771 27.0832C28.2043 27.5729 28.1294 28.0886 28.1562 28.604V39.0207H21.5312C21.5312 39.0207 21.5312 21.979 21.5312 20.2707H28.1562V22.9166C28.7581 21.9314 29.6334 21.1197 30.688 20.5691C31.7425 20.0184 32.9363 19.7496 34.1408 19.7916C38.5575 19.7916 41.7596 22.4791 41.7596 28.2499V39.0415Z" fill="black"/>
</svg>
